{
  "id" : "099DBF47-4C54-45A5-922E-29E630B981A3",
  "phone" : "+381572238812",
  "city" : "Sparwood",
  "emails" : [
    "cameron.carr@gmail.com",
    "ccarr94@yahoo.com"
  ],
  "zip" : "94940",
  "firstname" : "Cameron",
  "lastname" : "Carr",
  "state" : "Saint Barthélemy",
  "street" : "985-9838 Nibh. Rd."
}