{
  "id" : "128E5B4A-1D88-4BB1-836F-1B2F5CD35FF5",
  "phone" : "+381027569892",
  "city" : "Archennes",
  "emails" : [
    "hadassah.bird@gmail.com",
    "hbird73@yahoo.com"
  ],
  "zip" : "22663",
  "firstname" : "Hadassah",
  "lastname" : "Bird",
  "state" : "Nepal",
  "street" : "Ap #180-5501 Eu, Avenue"
}