{
  "id" : "5567F2EC-D93D-4BB1-82C2-9A29EBC2A5F6",
  "phone" : "+381014261762",
  "city" : "Baasrode",
  "emails" : [
    "medge.duran@gmail.com",
    "mduran11@yahoo.com"
  ],
  "zip" : "94937",
  "firstname" : "Medge",
  "lastname" : "Duran",
  "state" : "South Sudan",
  "street" : "Ap #360-4536 Sed Road"
}