{
  "id" : "6FF390F7-F2DB-49CA-A63D-7A1A22865A9E",
  "phone" : "+381504057225",
  "city" : "Fort Laird",
  "emails" : [
    "abel.mcfadden@gmail.com",
    "amcfadden64@yahoo.com"
  ],
  "zip" : "93100",
  "firstname" : "Abel",
  "lastname" : "Mcfadden",
  "state" : "Azerbaijan",
  "street" : "P.O. Box 784, 1982 Ac Street"
}