{
  "id" : "72CB5B8C-6579-4268-BDBF-B650041FB45F",
  "phone" : "+381728944508",
  "city" : "Gresham",
  "emails" : [
    "selma.knowles@gmail.com",
    "sknowles27@yahoo.com"
  ],
  "zip" : "20249",
  "firstname" : "Selma",
  "lastname" : "Knowles",
  "state" : "Marshall Islands",
  "street" : "3093 Etiam Rd."
}