{
  "id" : "983F2ADD-88E9-4EF2-B438-1FB1FA5192CF",
  "phone" : "+381835547715",
  "city" : "Assebroek",
  "emails" : [
    "rhiannon.church@gmail.com",
    "rchurch60@yahoo.com"
  ],
  "zip" : "89093",
  "firstname" : "Rhiannon",
  "lastname" : "Church",
  "state" : "Russian Federation",
  "street" : "P.O. Box 858, 9655 Habitant Avenue"
}