{
  "id" : "A15AB2D7-8689-44C1-AA2A-61B52F5351A2",
  "phone" : "+381380132752",
  "city" : "Tsiigehtchic",
  "emails" : [
    "colton.mccarty@gmail.com",
    "cmccarty49@yahoo.com"
  ],
  "zip" : "12276",
  "firstname" : "Colton",
  "lastname" : "Mccarty",
  "state" : "Denmark",
  "street" : "2377 Consectetuer Rd."
}