{
  "id" : "B4720AED-8CC1-410B-9869-7C63DD53BA62",
  "phone" : "+381682478847",
  "city" : "Gorzów Wielkopolski",
  "emails" : [
    "allen.weber@gmail.com",
    "aweber74@yahoo.com"
  ],
  "zip" : "79556",
  "firstname" : "Allen",
  "lastname" : "Weber",
  "state" : "Cocos (Keeling) Islands",
  "street" : "Ap #931-7340 Risus. St."
}